EESchema Schematic File Version 4
EELAYER 30 0
EELAYER END
$Descr A4 11693 8268
encoding utf-8
Sheet 1 1
Title "Lighting Controller Hardware"
Date "2020-12-08"
Rev "1.0"
Comp "Mad Wombat Labs"
Comment1 ""
Comment2 ""
Comment3 ""
Comment4 ""
$EndDescr
$Comp
L Connector:USB_B J2
U 1 1 5FCFF9AD
P 4600 2750
F 0 "J2" H 4370 2647 50  0000 R CNN
F 1 "USB_B" H 4370 2738 50  0000 R CNN
F 2 "" H 4750 2700 50  0001 C CNN
F 3 " ~" H 4750 2700 50  0001 C CNN
	1    4600 2750
	-1   0    0    1   
$EndComp
$Comp
L power:GND #PWR0101
U 1 1 5FD0D50F
P 6500 1900
F 0 "#PWR0101" H 6500 1650 50  0001 C CNN
F 1 "GND" H 6505 1727 50  0000 C CNN
F 2 "" H 6500 1900 50  0001 C CNN
F 3 "" H 6500 1900 50  0001 C CNN
	1    6500 1900
	1    0    0    -1  
$EndComp
$Comp
L Diode:1N4001 D2
U 1 1 5FD0DF17
P 6500 1250
F 0 "D2" V 6454 1330 50  0000 L CNN
F 1 "1N4001" V 6545 1330 50  0000 L CNN
F 2 "Diode_THT:D_DO-41_SOD81_P10.16mm_Horizontal" H 6500 1075 50  0001 C CNN
F 3 "http://www.vishay.com/docs/88503/1n4001.pdf" H 6500 1250 50  0001 C CNN
	1    6500 1250
	0    1    1    0   
$EndComp
Wire Wire Line
	6500 1400 6500 1450
$Comp
L power:+VDC #PWR0102
U 1 1 5FD13C07
P 6500 1000
F 0 "#PWR0102" H 6500 900 50  0001 C CNN
F 1 "+VDC" H 6500 1275 50  0000 C CNN
F 2 "" H 6500 1000 50  0001 C CNN
F 3 "" H 6500 1000 50  0001 C CNN
	1    6500 1000
	1    0    0    -1  
$EndComp
Wire Wire Line
	6500 1000 6500 1100
$Comp
L Connector:Screw_Terminal_01x16 J3
U 1 1 5FD14DD0
P 10800 3250
F 0 "J3" H 10880 3242 50  0000 L CNN
F 1 "Lights" H 10880 3151 50  0000 L CNN
F 2 "" H 10800 3250 50  0001 C CNN
F 3 "~" H 10800 3250 50  0001 C CNN
	1    10800 3250
	1    0    0    -1  
$EndComp
Wire Wire Line
	10600 2650 10550 2650
Wire Wire Line
	10550 2650 10550 2850
Wire Wire Line
	10550 4050 10600 4050
Wire Wire Line
	10600 2850 10550 2850
Connection ~ 10550 2850
Wire Wire Line
	10550 2850 10550 3050
Wire Wire Line
	10600 3050 10550 3050
Connection ~ 10550 3050
Wire Wire Line
	10550 3050 10550 3250
Wire Wire Line
	10600 3250 10550 3250
Connection ~ 10550 3250
Wire Wire Line
	10550 3250 10550 3450
Wire Wire Line
	10600 3450 10550 3450
Connection ~ 10550 3450
Wire Wire Line
	10550 3450 10550 3650
Wire Wire Line
	10600 3650 10550 3650
Connection ~ 10550 3650
Wire Wire Line
	10550 3650 10550 3850
Wire Wire Line
	10600 3850 10550 3850
Connection ~ 10550 3850
Wire Wire Line
	10550 3850 10550 4050
$Comp
L power:+VDC #PWR0103
U 1 1 5FD1B1E9
P 10550 2450
F 0 "#PWR0103" H 10550 2350 50  0001 C CNN
F 1 "+VDC" H 10550 2725 50  0000 C CNN
F 2 "" H 10550 2450 50  0001 C CNN
F 3 "" H 10550 2450 50  0001 C CNN
	1    10550 2450
	1    0    0    -1  
$EndComp
Wire Wire Line
	10550 2450 10550 2650
Connection ~ 10550 2650
$Comp
L power:GND #PWR0104
U 1 1 5FD44F44
P 6950 2400
F 0 "#PWR0104" H 6950 2150 50  0001 C CNN
F 1 "GND" H 6955 2227 50  0000 C CNN
F 2 "" H 6950 2400 50  0001 C CNN
F 3 "" H 6950 2400 50  0001 C CNN
	1    6950 2400
	1    0    0    -1  
$EndComp
$Comp
L Diode:1N4001 D3
U 1 1 5FD44F4A
P 6950 1250
F 0 "D3" V 6904 1330 50  0000 L CNN
F 1 "1N4001" V 6995 1330 50  0000 L CNN
F 2 "Diode_THT:D_DO-41_SOD81_P10.16mm_Horizontal" H 6950 1075 50  0001 C CNN
F 3 "http://www.vishay.com/docs/88503/1n4001.pdf" H 6950 1250 50  0001 C CNN
	1    6950 1250
	0    1    1    0   
$EndComp
Wire Wire Line
	6950 1400 6950 1800
$Comp
L power:GND #PWR0105
U 1 1 5FD6373D
P 7500 3000
F 0 "#PWR0105" H 7500 2750 50  0001 C CNN
F 1 "GND" H 7505 2827 50  0000 C CNN
F 2 "" H 7500 3000 50  0001 C CNN
F 3 "" H 7500 3000 50  0001 C CNN
	1    7500 3000
	1    0    0    -1  
$EndComp
$Comp
L Diode:1N4001 D4
U 1 1 5FD63743
P 7500 1250
F 0 "D4" V 7454 1330 50  0000 L CNN
F 1 "1N4001" V 7545 1330 50  0000 L CNN
F 2 "Diode_THT:D_DO-41_SOD81_P10.16mm_Horizontal" H 7500 1075 50  0001 C CNN
F 3 "http://www.vishay.com/docs/88503/1n4001.pdf" H 7500 1250 50  0001 C CNN
	1    7500 1250
	0    1    1    0   
$EndComp
Wire Wire Line
	7500 1400 7500 1900
$Comp
L power:GND #PWR0106
U 1 1 5FD6C98E
P 8000 3550
F 0 "#PWR0106" H 8000 3300 50  0001 C CNN
F 1 "GND" H 8005 3377 50  0000 C CNN
F 2 "" H 8000 3550 50  0001 C CNN
F 3 "" H 8000 3550 50  0001 C CNN
	1    8000 3550
	1    0    0    -1  
$EndComp
$Comp
L Diode:1N4001 D5
U 1 1 5FD6C994
P 8000 1250
F 0 "D5" V 7954 1330 50  0000 L CNN
F 1 "1N4001" V 8045 1330 50  0000 L CNN
F 2 "Diode_THT:D_DO-41_SOD81_P10.16mm_Horizontal" H 8000 1075 50  0001 C CNN
F 3 "http://www.vishay.com/docs/88503/1n4001.pdf" H 8000 1250 50  0001 C CNN
	1    8000 1250
	0    1    1    0   
$EndComp
Wire Wire Line
	8000 1400 8000 2000
$Comp
L power:GND #PWR0107
U 1 1 5FD6E60D
P 8500 4100
F 0 "#PWR0107" H 8500 3850 50  0001 C CNN
F 1 "GND" H 8505 3927 50  0000 C CNN
F 2 "" H 8500 4100 50  0001 C CNN
F 3 "" H 8500 4100 50  0001 C CNN
	1    8500 4100
	1    0    0    -1  
$EndComp
$Comp
L Diode:1N4001 D6
U 1 1 5FD6E613
P 8500 1250
F 0 "D6" V 8454 1330 50  0000 L CNN
F 1 "1N4001" V 8545 1330 50  0000 L CNN
F 2 "Diode_THT:D_DO-41_SOD81_P10.16mm_Horizontal" H 8500 1075 50  0001 C CNN
F 3 "http://www.vishay.com/docs/88503/1n4001.pdf" H 8500 1250 50  0001 C CNN
	1    8500 1250
	0    1    1    0   
$EndComp
Wire Wire Line
	8500 1400 8500 3350
$Comp
L power:GND #PWR0108
U 1 1 5FD703F8
P 8950 4650
F 0 "#PWR0108" H 8950 4400 50  0001 C CNN
F 1 "GND" H 8955 4477 50  0000 C CNN
F 2 "" H 8950 4650 50  0001 C CNN
F 3 "" H 8950 4650 50  0001 C CNN
	1    8950 4650
	1    0    0    -1  
$EndComp
$Comp
L Diode:1N4001 D7
U 1 1 5FD703FE
P 8950 1250
F 0 "D7" V 8904 1330 50  0000 L CNN
F 1 "1N4001" V 8995 1330 50  0000 L CNN
F 2 "Diode_THT:D_DO-41_SOD81_P10.16mm_Horizontal" H 8950 1075 50  0001 C CNN
F 3 "http://www.vishay.com/docs/88503/1n4001.pdf" H 8950 1250 50  0001 C CNN
	1    8950 1250
	0    1    1    0   
$EndComp
Wire Wire Line
	8950 1400 8950 3550
$Comp
L power:GND #PWR0109
U 1 1 5FD71FD3
P 9400 5200
F 0 "#PWR0109" H 9400 4950 50  0001 C CNN
F 1 "GND" H 9405 5027 50  0000 C CNN
F 2 "" H 9400 5200 50  0001 C CNN
F 3 "" H 9400 5200 50  0001 C CNN
	1    9400 5200
	1    0    0    -1  
$EndComp
$Comp
L Diode:1N4001 D8
U 1 1 5FD71FD9
P 9400 1250
F 0 "D8" V 9354 1330 50  0000 L CNN
F 1 "1N4001" V 9445 1330 50  0000 L CNN
F 2 "Diode_THT:D_DO-41_SOD81_P10.16mm_Horizontal" H 9400 1075 50  0001 C CNN
F 3 "http://www.vishay.com/docs/88503/1n4001.pdf" H 9400 1250 50  0001 C CNN
	1    9400 1250
	0    1    1    0   
$EndComp
Wire Wire Line
	9400 1400 9400 3750
$Comp
L power:GND #PWR0110
U 1 1 5FD737D6
P 9850 5650
F 0 "#PWR0110" H 9850 5400 50  0001 C CNN
F 1 "GND" H 9855 5477 50  0000 C CNN
F 2 "" H 9850 5650 50  0001 C CNN
F 3 "" H 9850 5650 50  0001 C CNN
	1    9850 5650
	1    0    0    -1  
$EndComp
$Comp
L Diode:1N4001 D9
U 1 1 5FD737DC
P 9850 1250
F 0 "D9" V 9804 1330 50  0000 L CNN
F 1 "1N4001" V 9895 1330 50  0000 L CNN
F 2 "Diode_THT:D_DO-41_SOD81_P10.16mm_Horizontal" H 9850 1075 50  0001 C CNN
F 3 "http://www.vishay.com/docs/88503/1n4001.pdf" H 9850 1250 50  0001 C CNN
	1    9850 1250
	0    1    1    0   
$EndComp
Wire Wire Line
	9850 1400 9850 3950
Wire Wire Line
	10600 2550 10250 2550
Wire Wire Line
	10250 2550 10250 1450
Wire Wire Line
	10250 1450 6500 1450
Connection ~ 6500 1450
Wire Wire Line
	6500 1450 6500 1500
Wire Wire Line
	6950 1800 10150 1800
Wire Wire Line
	10150 1800 10150 2750
Wire Wire Line
	10150 2750 10600 2750
Connection ~ 6950 1800
Wire Wire Line
	6950 1800 6950 2000
Wire Wire Line
	10600 2950 10050 2950
Wire Wire Line
	10050 2950 10050 1900
Wire Wire Line
	10050 1900 7500 1900
Connection ~ 7500 1900
Wire Wire Line
	7500 1900 7500 2600
Wire Wire Line
	8000 2000 9950 2000
Wire Wire Line
	9950 2000 9950 3150
Wire Wire Line
	9950 3150 10600 3150
Connection ~ 8000 2000
Wire Wire Line
	8000 2000 8000 3150
Wire Wire Line
	10600 3350 8500 3350
Connection ~ 8500 3350
Wire Wire Line
	8500 3350 8500 3700
Wire Wire Line
	10600 3550 8950 3550
Connection ~ 8950 3550
Wire Wire Line
	8950 3550 8950 4250
Wire Wire Line
	10600 3750 9400 3750
Connection ~ 9400 3750
Wire Wire Line
	9400 3750 9400 4800
Wire Wire Line
	10600 3950 9850 3950
Connection ~ 9850 3950
Wire Wire Line
	9850 3950 9850 5250
Wire Wire Line
	9850 1100 9400 1100
Connection ~ 6500 1100
Connection ~ 6950 1100
Wire Wire Line
	6950 1100 6500 1100
Connection ~ 7500 1100
Wire Wire Line
	7500 1100 6950 1100
Connection ~ 8000 1100
Wire Wire Line
	8000 1100 7500 1100
Connection ~ 8500 1100
Wire Wire Line
	8500 1100 8000 1100
Connection ~ 8950 1100
Wire Wire Line
	8950 1100 8500 1100
Connection ~ 9400 1100
Wire Wire Line
	9400 1100 8950 1100
$Comp
L Switch:SW_SPST SW1
U 1 1 5FE69772
P 4650 4900
F 0 "SW1" V 4604 4998 50  0000 L CNN
F 1 "SW_SPST" V 4695 4998 50  0000 L CNN
F 2 "" H 4650 4900 50  0001 C CNN
F 3 "~" H 4650 4900 50  0001 C CNN
	1    4650 4900
	0    1    1    0   
$EndComp
$Comp
L Device:R R3
U 1 1 5FE6D1B2
P 4650 4500
F 0 "R3" H 4580 4454 50  0000 R CNN
F 1 "100k" H 4580 4545 50  0000 R CNN
F 2 "" V 4580 4500 50  0001 C CNN
F 3 "~" H 4650 4500 50  0001 C CNN
	1    4650 4500
	-1   0    0    1   
$EndComp
Wire Wire Line
	4650 4650 4650 4700
$Comp
L power:+5V #PWR0111
U 1 1 5FE713E2
P 4650 4350
F 0 "#PWR0111" H 4650 4200 50  0001 C CNN
F 1 "+5V" H 4665 4523 50  0000 C CNN
F 2 "" H 4650 4350 50  0001 C CNN
F 3 "" H 4650 4350 50  0001 C CNN
	1    4650 4350
	1    0    0    -1  
$EndComp
$Comp
L power:GND #PWR0112
U 1 1 5FE71C23
P 4650 5100
F 0 "#PWR0112" H 4650 4850 50  0001 C CNN
F 1 "GND" H 4655 4927 50  0000 C CNN
F 2 "" H 4650 5100 50  0001 C CNN
F 3 "" H 4650 5100 50  0001 C CNN
	1    4650 5100
	1    0    0    -1  
$EndComp
Wire Wire Line
	4050 4550 4050 4700
Wire Wire Line
	4050 4700 4650 4700
Connection ~ 4650 4700
$Comp
L Device:C C7
U 1 1 5FE7DD16
P 4300 3150
F 0 "C7" V 4200 2950 50  0000 C CNN
F 1 "220n" V 4150 3150 50  0000 C CNN
F 2 "" H 4338 3000 50  0001 C CNN
F 3 "~" H 4300 3150 50  0001 C CNN
	1    4300 3150
	0    -1   -1   0   
$EndComp
$Comp
L power:GND #PWR0113
U 1 1 5FE80671
P 4450 3150
F 0 "#PWR0113" H 4450 2900 50  0001 C CNN
F 1 "GND" V 4455 3022 50  0000 R CNN
F 2 "" H 4450 3150 50  0001 C CNN
F 3 "" H 4450 3150 50  0001 C CNN
	1    4450 3150
	0    -1   -1   0   
$EndComp
Wire Wire Line
	4050 3150 4150 3150
$Comp
L power:GND #PWR0114
U 1 1 5FE68975
P 850 3200
F 0 "#PWR0114" H 850 2950 50  0001 C CNN
F 1 "GND" V 855 3072 50  0000 R CNN
F 2 "" H 850 3200 50  0001 C CNN
F 3 "" H 850 3200 50  0001 C CNN
	1    850  3200
	0    1    1    0   
$EndComp
$Comp
L power:GND #PWR0115
U 1 1 5FE6849E
P 850 2900
F 0 "#PWR0115" H 850 2650 50  0001 C CNN
F 1 "GND" V 855 2772 50  0000 R CNN
F 2 "" H 850 2900 50  0001 C CNN
F 3 "" H 850 2900 50  0001 C CNN
	1    850  2900
	0    1    1    0   
$EndComp
Connection ~ 1400 3200
Wire Wire Line
	1400 3200 1150 3200
Connection ~ 1400 2900
Wire Wire Line
	1150 2900 1400 2900
$Comp
L Device:C C2
U 1 1 5FE6188D
P 1000 3200
F 0 "C2" V 750 3200 50  0000 C CNN
F 1 "22p" V 850 3200 50  0000 C CNN
F 2 "" H 1038 3050 50  0001 C CNN
F 3 "~" H 1000 3200 50  0001 C CNN
	1    1000 3200
	0    -1   -1   0   
$EndComp
$Comp
L Device:C C1
U 1 1 5FE44F29
P 1000 2900
F 0 "C1" V 1252 2900 50  0000 C CNN
F 1 "22p" V 1161 2900 50  0000 C CNN
F 2 "" H 1038 2750 50  0001 C CNN
F 3 "~" H 1000 2900 50  0001 C CNN
	1    1000 2900
	0    -1   -1   0   
$EndComp
Wire Wire Line
	1700 3150 1850 3150
Wire Wire Line
	1700 3200 1700 3150
Wire Wire Line
	1400 3200 1700 3200
Wire Wire Line
	1700 2900 1400 2900
Wire Wire Line
	1700 2950 1700 2900
Wire Wire Line
	1850 2950 1700 2950
$Comp
L Device:Crystal Y1
U 1 1 5FE33855
P 1400 3050
F 0 "Y1" V 1354 3181 50  0000 L CNN
F 1 "4MHz" V 1445 3181 50  0000 L CNN
F 2 "" H 1400 3050 50  0001 C CNN
F 3 "~" H 1400 3050 50  0001 C CNN
	1    1400 3050
	0    1    1    0   
$EndComp
$Comp
L power:+5V #PWR0116
U 1 1 5FD0CD35
P 2900 1600
F 0 "#PWR0116" H 2900 1450 50  0001 C CNN
F 1 "+5V" H 2915 1773 50  0000 C CNN
F 2 "" H 2900 1600 50  0001 C CNN
F 3 "" H 2900 1600 50  0001 C CNN
	1    2900 1600
	1    0    0    -1  
$EndComp
Wire Wire Line
	2900 1600 3350 1600
Connection ~ 2900 1600
Wire Wire Line
	2900 2050 2950 2050
Connection ~ 2900 2050
Wire Wire Line
	2900 2050 2900 1600
Wire Wire Line
	2550 1600 2900 1600
$Comp
L power:GND #PWR0117
U 1 1 5FD081CF
P 2550 1900
F 0 "#PWR0117" H 2550 1650 50  0001 C CNN
F 1 "GND" H 2555 1727 50  0000 C CNN
F 2 "" H 2550 1900 50  0001 C CNN
F 3 "" H 2550 1900 50  0001 C CNN
	1    2550 1900
	1    0    0    -1  
$EndComp
$Comp
L power:GND #PWR0118
U 1 1 5FD0654C
P 3350 1900
F 0 "#PWR0118" H 3350 1650 50  0001 C CNN
F 1 "GND" H 3355 1727 50  0000 C CNN
F 2 "" H 3350 1900 50  0001 C CNN
F 3 "" H 3350 1900 50  0001 C CNN
	1    3350 1900
	1    0    0    -1  
$EndComp
$Comp
L Device:C C5
U 1 1 5FD06205
P 3350 1750
F 0 "C5" H 3465 1796 50  0000 L CNN
F 1 "100n" H 3465 1705 50  0000 L CNN
F 2 "" H 3388 1600 50  0001 C CNN
F 3 "~" H 3350 1750 50  0001 C CNN
	1    3350 1750
	1    0    0    -1  
$EndComp
$Comp
L Device:C C4
U 1 1 5FD05189
P 2550 1750
F 0 "C4" H 2665 1796 50  0000 L CNN
F 1 "100n" H 2665 1705 50  0000 L CNN
F 2 "" H 2588 1600 50  0001 C CNN
F 3 "~" H 2550 1750 50  0001 C CNN
	1    2550 1750
	1    0    0    -1  
$EndComp
Wire Wire Line
	2900 4850 2950 4850
Connection ~ 2900 4850
$Comp
L power:GND #PWR0119
U 1 1 5FD02B4E
P 2900 4850
F 0 "#PWR0119" H 2900 4600 50  0001 C CNN
F 1 "GND" H 2905 4677 50  0000 C CNN
F 2 "" H 2900 4850 50  0001 C CNN
F 3 "" H 2900 4850 50  0001 C CNN
	1    2900 4850
	1    0    0    -1  
$EndComp
Wire Wire Line
	2850 4850 2900 4850
Wire Wire Line
	2850 2050 2900 2050
$Comp
L MCU_Microchip_PIC18:PIC18F4550-IP U2
U 1 1 5FCFEA44
P 2950 3450
F 0 "U2" H 2950 5031 50  0000 C CNN
F 1 "PIC18F4550-IP" H 2950 4940 50  0000 C CNN
F 2 "Package_DIP:DIP-40_W15.24mm" H 2950 3650 50  0001 C CIN
F 3 "http://ww1.microchip.com/downloads/en/DeviceDoc/39760d.pdf" H 2950 3200 50  0001 C CNN
	1    2950 3450
	1    0    0    -1  
$EndComp
Wire Wire Line
	4050 2650 4300 2650
Wire Wire Line
	4050 2750 4300 2750
$Comp
L power:GND #PWR0120
U 1 1 5FECCE2A
P 4600 2350
F 0 "#PWR0120" H 4600 2100 50  0001 C CNN
F 1 "GND" H 4605 2177 50  0000 C CNN
F 2 "" H 4600 2350 50  0001 C CNN
F 3 "" H 4600 2350 50  0001 C CNN
	1    4600 2350
	-1   0    0    1   
$EndComp
Wire Wire Line
	4700 2350 4600 2350
Connection ~ 4600 2350
NoConn ~ 4300 2950
$Comp
L Device:CP C6
U 1 1 5FED3F17
P 3600 6050
F 0 "C6" H 3718 6096 50  0000 L CNN
F 1 "22u" H 3718 6005 50  0000 L CNN
F 2 "" H 3638 5900 50  0001 C CNN
F 3 "~" H 3600 6050 50  0001 C CNN
	1    3600 6050
	1    0    0    -1  
$EndComp
$Comp
L Regulator_Linear:LM317_3PinPackage U1
U 1 1 5FED8CE0
P 2800 5900
F 0 "U1" H 2800 6142 50  0000 C CNN
F 1 "LM317_3PinPackage" H 2800 6051 50  0000 C CNN
F 2 "" H 2800 6150 50  0001 C CIN
F 3 "http://www.ti.com/lit/ds/symlink/lm317.pdf" H 2800 5900 50  0001 C CNN
	1    2800 5900
	1    0    0    -1  
$EndComp
$Comp
L Device:C C3
U 1 1 5FEEA75A
P 2300 6100
F 0 "C3" H 2415 6146 50  0000 L CNN
F 1 "100n" H 2415 6055 50  0000 L CNN
F 2 "" H 2338 5950 50  0001 C CNN
F 3 "~" H 2300 6100 50  0001 C CNN
	1    2300 6100
	1    0    0    -1  
$EndComp
$Comp
L Device:R R1
U 1 1 5FEF8218
P 3200 6100
F 0 "R1" H 3270 6146 50  0000 L CNN
F 1 "240" H 3270 6055 50  0000 L CNN
F 2 "" V 3130 6100 50  0001 C CNN
F 3 "~" H 3200 6100 50  0001 C CNN
	1    3200 6100
	1    0    0    -1  
$EndComp
$Comp
L Device:R_POT_TRIM RV1
U 1 1 5FEF8E4D
P 2800 6550
F 0 "RV1" H 2730 6596 50  0000 R CNN
F 1 "5k" H 2730 6505 50  0000 R CNN
F 2 "" H 2800 6550 50  0001 C CNN
F 3 "~" H 2800 6550 50  0001 C CNN
	1    2800 6550
	1    0    0    -1  
$EndComp
Wire Wire Line
	2800 6200 2800 6250
Wire Wire Line
	3200 6250 2800 6250
Connection ~ 2800 6250
Wire Wire Line
	2800 6250 2800 6400
Wire Wire Line
	3100 5900 3200 5900
Wire Wire Line
	3200 5900 3200 5950
Connection ~ 3200 5900
Wire Wire Line
	3200 5900 3600 5900
$Comp
L power:GND #PWR0121
U 1 1 5FF0A060
P 3600 6200
F 0 "#PWR0121" H 3600 5950 50  0001 C CNN
F 1 "GND" H 3605 6027 50  0000 C CNN
F 2 "" H 3600 6200 50  0001 C CNN
F 3 "" H 3600 6200 50  0001 C CNN
	1    3600 6200
	1    0    0    -1  
$EndComp
$Comp
L power:GND #PWR0122
U 1 1 5FF0AB12
P 2800 6850
F 0 "#PWR0122" H 2800 6600 50  0001 C CNN
F 1 "GND" H 2805 6677 50  0000 C CNN
F 2 "" H 2800 6850 50  0001 C CNN
F 3 "" H 2800 6850 50  0001 C CNN
	1    2800 6850
	1    0    0    -1  
$EndComp
$Comp
L power:GND #PWR0123
U 1 1 5FF0B5CC
P 2300 6250
F 0 "#PWR0123" H 2300 6000 50  0001 C CNN
F 1 "GND" H 2305 6077 50  0000 C CNN
F 2 "" H 2300 6250 50  0001 C CNN
F 3 "" H 2300 6250 50  0001 C CNN
	1    2300 6250
	1    0    0    -1  
$EndComp
Wire Wire Line
	2950 6550 2950 6800
Wire Wire Line
	2950 6800 2800 6800
Wire Wire Line
	2800 6800 2800 6700
Wire Wire Line
	2800 6850 2800 6800
Connection ~ 2800 6800
Wire Wire Line
	2300 5950 2300 5900
Wire Wire Line
	2300 5900 2500 5900
$Comp
L Connector:Jack-DC J1
U 1 1 5FF183DE
P 1750 6000
F 0 "J1" H 1807 6325 50  0000 C CNN
F 1 "Jack-DC" H 1807 6234 50  0000 C CNN
F 2 "" H 1800 5960 50  0001 C CNN
F 3 "~" H 1800 5960 50  0001 C CNN
	1    1750 6000
	1    0    0    -1  
$EndComp
Wire Wire Line
	2050 5900 2150 5900
Connection ~ 2300 5900
$Comp
L power:GND #PWR0124
U 1 1 5FF1F8B2
P 2050 6200
F 0 "#PWR0124" H 2050 5950 50  0001 C CNN
F 1 "GND" H 2055 6027 50  0000 C CNN
F 2 "" H 2050 6200 50  0001 C CNN
F 3 "" H 2050 6200 50  0001 C CNN
	1    2050 6200
	1    0    0    -1  
$EndComp
Wire Wire Line
	2050 6100 2050 6200
$Comp
L power:+5V #PWR0125
U 1 1 5FF240C9
P 3600 5900
F 0 "#PWR0125" H 3600 5750 50  0001 C CNN
F 1 "+5V" H 3615 6073 50  0000 C CNN
F 2 "" H 3600 5900 50  0001 C CNN
F 3 "" H 3600 5900 50  0001 C CNN
	1    3600 5900
	1    0    0    -1  
$EndComp
Connection ~ 3600 5900
$Comp
L power:+VDC #PWR0126
U 1 1 5FF45D3C
P 2150 5650
F 0 "#PWR0126" H 2150 5550 50  0001 C CNN
F 1 "+VDC" H 2150 5925 50  0000 C CNN
F 2 "" H 2150 5650 50  0001 C CNN
F 3 "" H 2150 5650 50  0001 C CNN
	1    2150 5650
	1    0    0    -1  
$EndComp
Wire Wire Line
	2150 5650 2150 5900
Connection ~ 2150 5900
Wire Wire Line
	2150 5900 2300 5900
Wire Wire Line
	6150 5450 9550 5450
Wire Wire Line
	6150 5000 9100 5000
Wire Wire Line
	6150 4450 8650 4450
Wire Wire Line
	6150 3900 8200 3900
Wire Wire Line
	6150 3350 7700 3350
Wire Wire Line
	6150 2800 7200 2800
Wire Wire Line
	6150 2200 6650 2200
Wire Wire Line
	6150 1700 6200 1700
$Comp
L Device:R R11
U 1 1 5FD737CA
P 6000 5450
F 0 "R11" V 5793 5450 50  0000 C CNN
F 1 "10" V 5884 5450 50  0000 C CNN
F 2 "" V 5930 5450 50  0001 C CNN
F 3 "~" H 6000 5450 50  0001 C CNN
	1    6000 5450
	0    1    1    0   
$EndComp
$Comp
L Device:R R10
U 1 1 5FD71FC7
P 6000 5000
F 0 "R10" V 5793 5000 50  0000 C CNN
F 1 "10" V 5884 5000 50  0000 C CNN
F 2 "" V 5930 5000 50  0001 C CNN
F 3 "~" H 6000 5000 50  0001 C CNN
	1    6000 5000
	0    1    1    0   
$EndComp
$Comp
L Device:R R9
U 1 1 5FD703EC
P 6000 4450
F 0 "R9" V 5793 4450 50  0000 C CNN
F 1 "10" V 5884 4450 50  0000 C CNN
F 2 "" V 5930 4450 50  0001 C CNN
F 3 "~" H 6000 4450 50  0001 C CNN
	1    6000 4450
	0    1    1    0   
$EndComp
$Comp
L Device:R R8
U 1 1 5FD6E601
P 6000 3900
F 0 "R8" V 5793 3900 50  0000 C CNN
F 1 "10" V 5884 3900 50  0000 C CNN
F 2 "" V 5930 3900 50  0001 C CNN
F 3 "~" H 6000 3900 50  0001 C CNN
	1    6000 3900
	0    1    1    0   
$EndComp
$Comp
L Device:R R7
U 1 1 5FD6C982
P 6000 3350
F 0 "R7" V 5793 3350 50  0000 C CNN
F 1 "10" V 5884 3350 50  0000 C CNN
F 2 "" V 5930 3350 50  0001 C CNN
F 3 "~" H 6000 3350 50  0001 C CNN
	1    6000 3350
	0    1    1    0   
$EndComp
$Comp
L Device:R R6
U 1 1 5FD63731
P 6000 2800
F 0 "R6" V 5793 2800 50  0000 C CNN
F 1 "10" V 5884 2800 50  0000 C CNN
F 2 "" V 5930 2800 50  0001 C CNN
F 3 "~" H 6000 2800 50  0001 C CNN
	1    6000 2800
	0    1    1    0   
$EndComp
$Comp
L Device:R R5
U 1 1 5FD44F38
P 6000 2200
F 0 "R5" V 5793 2200 50  0000 C CNN
F 1 "10" V 5884 2200 50  0000 C CNN
F 2 "" V 5930 2200 50  0001 C CNN
F 3 "~" H 6000 2200 50  0001 C CNN
	1    6000 2200
	0    1    1    0   
$EndComp
$Comp
L Device:R R4
U 1 1 5FD0062B
P 6000 1700
F 0 "R4" V 5793 1700 50  0000 C CNN
F 1 "10" V 5884 1700 50  0000 C CNN
F 2 "" V 5930 1700 50  0001 C CNN
F 3 "~" H 6000 1700 50  0001 C CNN
	1    6000 1700
	0    1    1    0   
$EndComp
Wire Wire Line
	4050 3350 5200 3350
Wire Wire Line
	5200 3350 5200 1700
Wire Wire Line
	5200 1700 5850 1700
Wire Wire Line
	5850 2200 5300 2200
Wire Wire Line
	5300 2200 5300 3450
Wire Wire Line
	5300 3450 4050 3450
Wire Wire Line
	5850 2800 5400 2800
Wire Wire Line
	5400 2800 5400 3550
Wire Wire Line
	5400 3550 4050 3550
Wire Wire Line
	5500 3650 5500 3350
Wire Wire Line
	5500 3350 5850 3350
Wire Wire Line
	5850 3900 5500 3900
Wire Wire Line
	5500 3900 5500 3750
Wire Wire Line
	5500 3750 4050 3750
Wire Wire Line
	4050 3650 5500 3650
Wire Wire Line
	5400 3850 5400 4450
Wire Wire Line
	5400 4450 5850 4450
Wire Wire Line
	5850 5000 5300 5000
Wire Wire Line
	5300 5000 5300 3950
Wire Wire Line
	5300 3950 4050 3950
Wire Wire Line
	4050 4050 5200 4050
Wire Wire Line
	5200 4050 5200 5450
Wire Wire Line
	5200 5450 5850 5450
Wire Wire Line
	4050 3850 5400 3850
$Comp
L Device:LED D1
U 1 1 5FFDE5BE
P 4250 5300
F 0 "D1" V 4289 5182 50  0000 R CNN
F 1 "STATUS" V 4198 5182 50  0000 R CNN
F 2 "" H 4250 5300 50  0001 C CNN
F 3 "~" H 4250 5300 50  0001 C CNN
	1    4250 5300
	0    -1   -1   0   
$EndComp
$Comp
L Device:R R2
U 1 1 5FFF9E16
P 4250 4900
F 0 "R2" H 4320 4946 50  0000 L CNN
F 1 "R" H 4320 4855 50  0000 L CNN
F 2 "" V 4180 4900 50  0001 C CNN
F 3 "~" H 4250 4900 50  0001 C CNN
	1    4250 4900
	1    0    0    -1  
$EndComp
$Comp
L power:GND #PWR0127
U 1 1 5FFFBC6C
P 4250 5550
F 0 "#PWR0127" H 4250 5300 50  0001 C CNN
F 1 "GND" H 4255 5377 50  0000 C CNN
F 2 "" H 4250 5550 50  0001 C CNN
F 3 "" H 4250 5550 50  0001 C CNN
	1    4250 5550
	1    0    0    -1  
$EndComp
Wire Wire Line
	4050 4250 4250 4250
Wire Wire Line
	4250 4250 4250 4750
Wire Wire Line
	4250 5050 4250 5150
Wire Wire Line
	4250 5450 4250 5550
NoConn ~ 1850 2350
NoConn ~ 1850 2450
NoConn ~ 1850 2550
NoConn ~ 1850 2650
NoConn ~ 1850 2750
NoConn ~ 1850 2850
NoConn ~ 1850 3450
NoConn ~ 1850 3550
NoConn ~ 1850 3650
NoConn ~ 1850 3750
NoConn ~ 1850 3850
NoConn ~ 1850 3950
NoConn ~ 1850 4050
NoConn ~ 4050 2350
NoConn ~ 4050 2450
NoConn ~ 4050 2550
NoConn ~ 4050 2850
NoConn ~ 4050 2950
NoConn ~ 4050 4350
NoConn ~ 4050 4450
$Comp
L Transistor_FET:2N7000 Q1
U 1 1 5FD833E2
P 6400 1700
F 0 "Q1" H 6604 1746 50  0000 L CNN
F 1 "2N7000" H 6604 1655 50  0000 L CNN
F 2 "Package_TO_SOT_THT:TO-92_Inline" H 6600 1625 50  0001 L CIN
F 3 "https://www.onsemi.com/pub/Collateral/NDS7002A-D.PDF" H 6400 1700 50  0001 L CNN
	1    6400 1700
	1    0    0    -1  
$EndComp
$Comp
L Transistor_FET:2N7000 Q2
U 1 1 5FD8C1F2
P 6850 2200
F 0 "Q2" H 7054 2246 50  0000 L CNN
F 1 "2N7000" H 7054 2155 50  0000 L CNN
F 2 "Package_TO_SOT_THT:TO-92_Inline" H 7050 2125 50  0001 L CIN
F 3 "https://www.onsemi.com/pub/Collateral/NDS7002A-D.PDF" H 6850 2200 50  0001 L CNN
	1    6850 2200
	1    0    0    -1  
$EndComp
$Comp
L Transistor_FET:2N7000 Q3
U 1 1 5FD921AF
P 7400 2800
F 0 "Q3" H 7604 2846 50  0000 L CNN
F 1 "2N7000" H 7604 2755 50  0000 L CNN
F 2 "Package_TO_SOT_THT:TO-92_Inline" H 7600 2725 50  0001 L CIN
F 3 "https://www.onsemi.com/pub/Collateral/NDS7002A-D.PDF" H 7400 2800 50  0001 L CNN
	1    7400 2800
	1    0    0    -1  
$EndComp
$Comp
L Transistor_FET:2N7000 Q4
U 1 1 5FD980BD
P 7900 3350
F 0 "Q4" H 8104 3396 50  0000 L CNN
F 1 "2N7000" H 8104 3305 50  0000 L CNN
F 2 "Package_TO_SOT_THT:TO-92_Inline" H 8100 3275 50  0001 L CIN
F 3 "https://www.onsemi.com/pub/Collateral/NDS7002A-D.PDF" H 7900 3350 50  0001 L CNN
	1    7900 3350
	1    0    0    -1  
$EndComp
$Comp
L Transistor_FET:2N7000 Q5
U 1 1 5FD9F016
P 8400 3900
F 0 "Q5" H 8604 3946 50  0000 L CNN
F 1 "2N7000" H 8604 3855 50  0000 L CNN
F 2 "Package_TO_SOT_THT:TO-92_Inline" H 8600 3825 50  0001 L CIN
F 3 "https://www.onsemi.com/pub/Collateral/NDS7002A-D.PDF" H 8400 3900 50  0001 L CNN
	1    8400 3900
	1    0    0    -1  
$EndComp
$Comp
L Transistor_FET:2N7000 Q6
U 1 1 5FDA521E
P 8850 4450
F 0 "Q6" H 9054 4496 50  0000 L CNN
F 1 "2N7000" H 9054 4405 50  0000 L CNN
F 2 "Package_TO_SOT_THT:TO-92_Inline" H 9050 4375 50  0001 L CIN
F 3 "https://www.onsemi.com/pub/Collateral/NDS7002A-D.PDF" H 8850 4450 50  0001 L CNN
	1    8850 4450
	1    0    0    -1  
$EndComp
$Comp
L Transistor_FET:2N7000 Q7
U 1 1 5FDAB459
P 9300 5000
F 0 "Q7" H 9504 5046 50  0000 L CNN
F 1 "2N7000" H 9504 4955 50  0000 L CNN
F 2 "Package_TO_SOT_THT:TO-92_Inline" H 9500 4925 50  0001 L CIN
F 3 "https://www.onsemi.com/pub/Collateral/NDS7002A-D.PDF" H 9300 5000 50  0001 L CNN
	1    9300 5000
	1    0    0    -1  
$EndComp
$Comp
L Transistor_FET:2N7000 Q8
U 1 1 5FDB1772
P 9750 5450
F 0 "Q8" H 9954 5496 50  0000 L CNN
F 1 "2N7000" H 9954 5405 50  0000 L CNN
F 2 "Package_TO_SOT_THT:TO-92_Inline" H 9950 5375 50  0001 L CIN
F 3 "https://www.onsemi.com/pub/Collateral/NDS7002A-D.PDF" H 9750 5450 50  0001 L CNN
	1    9750 5450
	1    0    0    -1  
$EndComp
NoConn ~ 1850 3350
$EndSCHEMATC
